Análise Exploratória - Comparação entre vendedores de diferentes lojas
…
ticket_medio_regiao_diretoria <- faturamento_por_transacao %>%
  group_by(regiao, diretoria) %>%
  summarise(
    ticket_medio = mean(faturamento_transacao, na.rm = TRUE)  
  ) %>%
  ungroup()

## `summarise()` has grouped output by 'regiao'. You can override using the
## `.groups` argument.

print(faturamento_por_transacao)

## # A tibble: 18,052 × 4
##    cod_transacao regiao                 diretoria          faturamento_transacao
##    <chr>         <chr>                  <chr>                              <dbl>
##  1 000484fc7c    SP Capital Centro      Grande SP                           929.
##  2 0007242f3f    SP Capital Leste/Oeste Grande SP                           301.
##  3 0012fb5659    SP Capital Centro      Grande SP                           976.
##  4 00159cc227    SP Interior            SP Interior/Sudes…                  297.
##  5 0016dd462a    SP Capital Centro      Grande SP                           192.
##  6 001af83ace    SP Interior            SP Interior/Sudes…                  489.
##  7 001ded4163    RS                     Sul                                 590.
##  8 0026881cb2    SP Capital Centro      Grande SP                           583.
##  9 002f483cb2    SP Interior            SP Interior/Sudes…                  612.
## 10 003449351c    RJ                     SP Interior/Sudes…                 1549.
## # ℹ 18,042 more rows
…
